tp09/Pedro_Henrique_Lima_Carvalho_651230_Exemplo_0904.vcd
$date
	Wed Apr 15 13:44:46 2020
$end
$version
	Icarus Verilog
$end
$timescale
	1s
$end
$scope module main $end
$var wire 1 ! clock $end
$upscope $end
$scope module main $end
$var wire 1 " p $end
$upscope $end
$enddefinitions $end
#0
$dumpvars
x"
0!
$end
#12
1"
1!
#24
0!
#36
1!
0"
#48
0!
#60
1!
1"
#72
0!
#84
1!
0"
#96
0!
#108
1!
1"
#120
0!
#132
1!
0"
#144
0!
#156
1!
1"
#168
0!
#180
1!
0"
#192
0!
#204
1!
1"
#216
0!
#228
1!
0"
#240
0!
#252
1!
1"
#264
0!
#276
1!
0"
#288
0!
#300
1!
1"
#312
0!
#324
1!
0"
#336
0!
#348
1!
1"
#360
0!
#372
1!
0"
#384
0!
#396
1!
1"
#408
0!
#420
1!
0"
#432
0!
#444
1!
1"
#456
0!
#468
1!
0"
